<?xml version="1.0" encoding="utf-8"?>
<!-- Generator: Adobe Illustrator 24.0.1, SVG Export Plug-In . SVG Version: 6.00 Build 0)  -->
<svg version="1.1" id="Capa_1" xmlns="http://www.w3.org/2000/svg" xmlns:xlink="http://www.w3.org/1999/xlink" x="0px" y="0px"
	 viewBox="0 0 330.7 286.11" style="enable-background:new 0 0 330.7 286.11;" xml:space="preserve">
<style type="text/css">
	.st0{fill:#E8E8E8;}
	.st1{fill:#FFFFFF;}
	.st2{fill:#44F0CF;}
	.st3{fill:#038B74;}
</style>
<g>
	<path class="st1" d="M193.34,183.42c-1.47-0.04-2.94-0.13-4.42-0.13c-21.43-0.01-42.86,0-64.28-0.01c-0.82,0-1.69,0.18-2.49-0.3
		c-0.51-0.69-0.28-1.49-0.28-2.25c-0.01-24.56-0.02-49.13,0-73.69c0.01-10.3,2.05-20.21,6.46-29.73
		c9.74-21.06,26.4-35.33,49.59-42.92c13.31-4.36,27.07-5.23,41.07-2.93c13.78,2.26,26.19,7.31,37.05,15.34
		c12.53,9.27,21.65,20.92,26.85,35.1c3.17,8.64,4.71,17.49,4.45,26.59c-0.45,15.66-5.44,29.98-15.38,42.72
		c-10.04,12.88-23.13,22.1-39.26,27.54c-4.4,1.48-8.92,2.68-13.77,3.25c0-4.81,0-9.51,0-14.39c19.48-4.37,34.56-14.45,44.46-30.67
		c7.9-12.95,10.45-26.94,7.36-41.56c-7.15-33.84-39.39-52.09-68.97-50.76c-35.67,1.61-62.08,27.64-64.18,57.77
		c0.79,0.56,1.74,0.29,2.61,0.29c21.85,0.02,43.7,0.01,65.55,0.02c0.83,0,1.69-0.16,2.5,0.17c-0.83,0.05-1.67,0.16-2.5,0.16
		c-21.94,0.01-43.88,0-65.82,0.02c-0.81,0-1.68-0.25-2.49,0.36c0,4.54,0,9.11,0,13.69c0,17.19,0,34.38,0,51.82c18.82,0,37.41,0,56,0
		C193.51,173.76,193.61,178.59,193.34,183.42z"/>
	<path class="st1" d="M137.41,117.11c0-4.57,0-9.15,0-13.69c0.81-0.61,1.69-0.36,2.49-0.36c21.94-0.01,43.88-0.01,65.82-0.02
		c0.83,0,1.67-0.1,2.5-0.16c0.87,0.38,0.56,1.11,0.56,1.71c0.01,25.34,0.65,50.7-0.15,76.01c-1.02,32.41-18.24,55.76-50.15,68.88
		c-34,13.98-73.89,4.38-96.91-22.42c-14.82-17.26-20.9-37.1-17.18-58.81c5.08-29.65,23.53-49.83,53.65-60.9
		c3.58-1.32,7.35-2.17,11.13-2.92c0.87-0.17,1.75-0.43,2.76-0.16c0,4.67,0,9.33,0,14.16c-3.49,0.81-7,1.66-10.35,2.96
		c-20.97,8.13-34.76,22.19-40.59,42.6c-8.11,28.4,6.98,57.96,35.59,71.2c25.23,11.67,57.71,6.61,77.38-12.19
		c11.58-11.07,18.06-24.25,19.37-39.6c0.27-4.83,0.17-9.66,0.07-14.49c0.02-0.26,0.06-0.52,0.06-0.78c0-16.55,0.01-33.11,0-49.66
		c0-0.43,0.14-0.92-0.43-1.38C174.59,117.11,156,117.11,137.41,117.11z"/>
</g>
</svg>
